Reproducible Research Week2 Course Project 1
…
##  Factor w/ 2 levels "weekday","weekend": 1 1 1 1 1 1 1 1 1 1 ...

weekday.df <- data.frame(weekday)
activity_imput_weekday <- cbind(activity_imput, weekday.df)

Make a panel plot containing a time series plot of the 5 minute interval and the average number of steps taken, averaged across all weekday days or weekend days.

# Calculate the average number of steps taken across weekday or weekend
average_steps_df <- activity_imput_weekday %>% group_by(weekday, interval) %>% summarise(average_steps = mean(steps))
average_steps_df

## # A tibble: 576 x 3
## # Groups:   weekday [2]
##    weekday interval average_steps
##    <fct>      <int>         <dbl>
##  1 weekday        0         2.25 
##  2 weekday        5         0.629
##  3 weekday       10         0.384
##  4 weekday       15         0.407
##  5 weekday       20         0.318
##  6 weekday       25         1.54 
##  7 weekday       30         0.851
##  8 weekday       35         1.25 
##  9 weekday       40         0.229
## 10 weekday       45         1.83 
## #  with 566 more rows
…
